<?xml version="1.0" encoding="UTF-8"?>
<robot generator="Robot 7.0 (Python 3.12.2 on win32)" generated="2024-05-31T16:41:46.338552" rpa="false" schemaversion="5">
<suite id="s1" name="SO1 API" source="C:\Users\mb_la\OneDrive\Documentos\MB_Robotizando_API\API-ROBOT\Test\SO1_API.robot">
<test id="s1-t1" name="CT01: Realizar uma Requisição GET consultando lista de usuario" line="7">
<kw name="Dado que estou conectado na Api" owner="Api_Resouces">
<kw name="Create Session" owner="RequestsLibrary">
<msg time="2024-05-31T16:41:46.606758" level="INFO">Creating Session using : alias=lista_users, url=https://reqres.in/api/users?page=2, headers={},                     cookies={}, auth=None, timeout=None, proxies=None, verify=False,                     debug=0 </msg>
<msg time="2024-05-31T16:41:46.606758" level="INFO">${ALIAS} = &lt;requests.sessions.Session object at 0x0000020054BFBDD0&gt;</msg>
<var>${ALIAS}</var>
<arg>alias=lista_users</arg>
<arg>url=${URL}/${FINAL_ENDPOINT}</arg>
<doc>Create Session: create a HTTP session to a server</doc>
<status status="PASS" start="2024-05-31T16:41:46.606758" elapsed="0.000000"/>
</kw>
<kw name="Session Exists" owner="RequestsLibrary">
<arg>alias=lista_users</arg>
<doc>Return True if the session has been already created</doc>
<status status="PASS" start="2024-05-31T16:41:46.607757" elapsed="0.000000"/>
</kw>
<arg>users?page=2</arg>
<status status="PASS" start="2024-05-31T16:41:46.605758" elapsed="0.001999"/>
</kw>
<kw name="Quando envio a requisição para consultar usuarios" owner="Api_Resouces">
<kw name="GET On Session" owner="RequestsLibrary">
<msg time="2024-05-31T16:41:47.393220" level="INFO">GET Request : url=https://reqres.in/api/users?pages=2 
 path_url=/api/users?pages=2 
 headers={'User-Agent': 'python-requests/2.31.0', 'Accept-Encoding': 'gzip, deflate', 'Accept': '*/*', 'Connection': 'keep-alive'} 
 body=None 
 </msg>
<msg time="2024-05-31T16:41:47.393220" level="INFO">GET Response : url=https://reqres.in/api/users?pages=2 
 status=200, reason=OK 
 headers={'Date': 'Fri, 31 May 2024 19:41:49 GMT', 'Content-Type': 'application/json; charset=utf-8', 'Transfer-Encoding': 'chunked', 'Connection': 'keep-alive', 'Report-To': '{"group":"heroku-nel","max_age":3600,"endpoints":[{"url":"https://nel.heroku.com/reports?ts=1717184509&amp;sid=c4c9725f-1ab0-44d8-820f-430df2718e11&amp;s=4q7z%2Ff6pgBtH%2F%2FLpoXWtbSV1Di6GMRoAWUvGBlcSPCM%3D"}]}', 'Reporting-Endpoints': 'heroku-nel=https://nel.heroku.com/reports?ts=1717184509&amp;sid=c4c9725f-1ab0-44d8-820f-430df2718e11&amp;s=4q7z%2Ff6pgBtH%2F%2FLpoXWtbSV1Di6GMRoAWUvGBlcSPCM%3D', 'Nel': '{"report_to":"heroku-nel","max_age":3600,"success_fraction":0.005,"failure_fraction":0.05,"response_headers":["Via"]}', 'X-Powered-By': 'Express', 'Access-Control-Allow-Origin': '*', 'Etag': 'W/"3e4-2RLXvr5wTg9YQ6aH95CkYoFNuO8"', 'Via': '1.1 vegur', 'Cache-Control': 'max-age=14400', 'CF-Cache-Status': 'MISS', 'Vary': 'Accept-Encoding', 'Server': 'cloudflare', 'CF-RAY': '88c9718bff3ea4aa-GRU', 'Content-Encoding': 'gzip'} 
 body={"page":1,"per_page":6,"total":12,"total_pages":2,"data":[{"id":1,"email":"george.bluth@reqres.in","first_name":"George","last_name":"Bluth","avatar":"https://reqres.in/img/faces/1-image.jpg"},{"id":2,"email":"janet.weaver@reqres.in","first_name":"Janet","last_name":"Weaver","avatar":"https://reqres.in/img/faces/2-image.jpg"},{"id":3,"email":"emma.wong@reqres.in","first_name":"Emma","last_name":"Wong","avatar":"https://reqres.in/img/faces/3-image.jpg"},{"id":4,"email":"eve.holt@reqres.in","first_name":"Eve","last_name":"Holt","avatar":"https://reqres.in/img/faces/4-image.jpg"},{"id":5,"email":"charles.morris@reqres.in","first_name":"Charles","last_name":"Morris","avatar":"https://reqres.in/img/faces/5-image.jpg"},{"id":6,"email":"tracey.ramos@reqres.in","first_name":"Tracey","last_name":"Ramos","avatar":"https://reqres.in/img/faces/6-image.jpg"}],"support":{"url":"https://reqres.in/#support-heading","text":"To keep ReqRes free, contributions towards server costs are appreciated!"}} 
 </msg>
<msg time="2024-05-31T16:41:47.394217" level="INFO">C:\Users\mb_la\AppData\Local\Programs\Python\Python312\Lib\site-packages\urllib3\connectionpool.py:1103: InsecureRequestWarning: Unverified HTTPS request is being made to host 'reqres.in'. Adding certificate verification is strongly advised. See: https://urllib3.readthedocs.io/en/latest/advanced-usage.html#tls-warnings
  warnings.warn(</msg>
<msg time="2024-05-31T16:41:47.395219" level="INFO">${RESPONSE} = &lt;Response [200]&gt;</msg>
<var>${RESPONSE}</var>
<arg>alias=lista_users</arg>
<arg>url=${URL}/users?pages=2</arg>
<doc>Sends a GET request on a previously created HTTP Session.</doc>
<status status="PASS" start="2024-05-31T16:41:46.608761" elapsed="0.786458"/>
</kw>
<kw name="Set Test Variable" owner="BuiltIn">
<msg time="2024-05-31T16:41:47.396222" level="INFO">${RESPONSE} = &lt;Response [200]&gt;</msg>
<arg>${RESPONSE}</arg>
<doc>Makes a variable available everywhere within the scope of the current test.</doc>
<status status="PASS" start="2024-05-31T16:41:47.396222" elapsed="0.000000"/>
</kw>
<status status="PASS" start="2024-05-31T16:41:46.607757" elapsed="0.788465"/>
</kw>
<kw name="Então a Requisição deve ocorrer GET sucesso" owner="Api_Resouces">
<kw name="Status Should Be" owner="RequestsLibrary">
<arg>${status_code}</arg>
<doc>Fails if response status code is different than the expected.</doc>
<status status="PASS" start="2024-05-31T16:41:47.397219" elapsed="0.000000"/>
</kw>
<arg>200</arg>
<status status="PASS" start="2024-05-31T16:41:47.397219" elapsed="0.000000"/>
</kw>
<kw name="E deve ser retornado a quantidade de registro corretamente" owner="Api_Resouces">
<kw name="Get Length" owner="BuiltIn">
<msg time="2024-05-31T16:41:47.399216" level="INFO">Length is 6.</msg>
<msg time="2024-05-31T16:41:47.399216" level="INFO">${qtd_retornada} = 6</msg>
<var>${qtd_retornada}</var>
<arg>${RESPONSE.json()['data']}</arg>
<doc>Returns and logs the length of the given item as an integer.</doc>
<status status="PASS" start="2024-05-31T16:41:47.399216" elapsed="0.000000"/>
</kw>
<kw name="Should Be Equal" owner="BuiltIn">
<arg>${qtd_esperada}</arg>
<arg>${qtd_retornada}</arg>
<doc>Fails if the given objects are unequal.</doc>
<status status="PASS" start="2024-05-31T16:41:47.400215" elapsed="0.000000"/>
</kw>
<arg>${6}</arg>
<status status="PASS" start="2024-05-31T16:41:47.398228" elapsed="0.001987"/>
</kw>
<doc>CARD XXYY</doc>
<tag>SO1_CT01</tag>
<status status="PASS" start="2024-05-31T16:41:46.604760" elapsed="0.795969"/>
</test>
<test id="s1-t2" name="CT02: Realizar uma Requisição PUT criando um novo usuario" line="15">
<kw name="Dado que estou conectado na Api" owner="Api_Resouces">
<kw name="Create Session" owner="RequestsLibrary">
<msg time="2024-05-31T16:41:47.403748" level="INFO">Creating Session using : alias=lista_users, url=https://reqres.in/api/users, headers={},                     cookies={}, auth=None, timeout=None, proxies=None, verify=False,                     debug=0 </msg>
<msg time="2024-05-31T16:41:47.404739" level="INFO">${ALIAS} = &lt;requests.sessions.Session object at 0x0000020054C501D0&gt;</msg>
<var>${ALIAS}</var>
<arg>alias=lista_users</arg>
<arg>url=${URL}/${FINAL_ENDPOINT}</arg>
<doc>Create Session: create a HTTP session to a server</doc>
<status status="PASS" start="2024-05-31T16:41:47.403748" elapsed="0.000991"/>
</kw>
<kw name="Session Exists" owner="RequestsLibrary">
<arg>alias=lista_users</arg>
<doc>Return True if the session has been already created</doc>
<status status="PASS" start="2024-05-31T16:41:47.404739" elapsed="0.000000"/>
</kw>
<arg>users</arg>
<status status="PASS" start="2024-05-31T16:41:47.402741" elapsed="0.001998"/>
</kw>
<kw name="Quando envio a requisição para criar um novo usuario" owner="Api_Resouces">
<kw name="Create Dictionary" owner="BuiltIn">
<msg time="2024-05-31T16:41:47.406741" level="INFO">${DADOS} = {'name': 'Miriam', 'job': 'QA'}</msg>
<var>${DADOS}</var>
<arg>name=Miriam</arg>
<arg>job=QA</arg>
<doc>Creates and returns a dictionary based on the given ``items``.</doc>
<status status="PASS" start="2024-05-31T16:41:47.406741" elapsed="0.000000"/>
</kw>
<kw name="POST" owner="RequestsLibrary">
<msg time="2024-05-31T16:41:49.365023" level="INFO">POST Request : url=https://reqres.in/api/users/%7B'name':%20'Miriam',%20'job':%20'QA'%7D 
 path_url=/api/users/%7B'name':%20'Miriam',%20'job':%20'QA'%7D 
 headers={'User-Agent': 'python-requests/2.31.0', 'Accept-Encoding': 'gzip, deflate', 'Accept': '*/*', 'Connection': 'keep-alive', 'Content-Length': '0'} 
 body=None 
 </msg>
<msg time="2024-05-31T16:41:49.365023" level="INFO">POST Response : url=https://reqres.in/api/users/%7B'name':%20'Miriam',%20'job':%20'QA'%7D 
 status=201, reason=Created 
 headers={'Date': 'Fri, 31 May 2024 19:41:51 GMT', 'Content-Type': 'application/json; charset=utf-8', 'Content-Length': '51', 'Connection': 'keep-alive', 'Report-To': '{"group":"heroku-nel","max_age":3600,"endpoints":[{"url":"https://nel.heroku.com/reports?ts=1717184511&amp;sid=c4c9725f-1ab0-44d8-820f-430df2718e11&amp;s=VIbKGNF2g2SlVsiQZuwzFce86OnN5jBzQIIUfVGr7%2FQ%3D"}]}', 'Reporting-Endpoints': 'heroku-nel=https://nel.heroku.com/reports?ts=1717184511&amp;sid=c4c9725f-1ab0-44d8-820f-430df2718e11&amp;s=VIbKGNF2g2SlVsiQZuwzFce86OnN5jBzQIIUfVGr7%2FQ%3D', 'Nel': '{"report_to":"heroku-nel","max_age":3600,"success_fraction":0.005,"failure_fraction":0.05,"response_headers":["Via"]}', 'X-Powered-By': 'Express', 'Access-Control-Allow-Origin': '*', 'Etag': 'W/"33-WCAlSVRjPQx7rvkHe3xAVgnMp80"', 'Via': '1.1 vegur', 'CF-Cache-Status': 'DYNAMIC', 'Server': 'cloudflare', 'CF-RAY': '88c971991d8da477-GRU'} 
 body={"id":"749","createdAt":"2024-05-31T19:41:51.215Z"} 
 </msg>
<msg time="2024-05-31T16:41:49.365023" level="INFO">${RESPONSE} = &lt;Response [201]&gt;</msg>
<var>${RESPONSE}</var>
<arg>${URL}/users/${DADOS}</arg>
<doc>Sends a POST request.</doc>
<status status="PASS" start="2024-05-31T16:41:47.406741" elapsed="1.958282"/>
</kw>
<status status="PASS" start="2024-05-31T16:41:47.405742" elapsed="1.959281"/>
</kw>
<kw name="Então a Requisição deve ocorrer GET sucesso" owner="Api_Resouces">
<kw name="Status Should Be" owner="RequestsLibrary">
<arg>${status_code}</arg>
<doc>Fails if response status code is different than the expected.</doc>
<status status="PASS" start="2024-05-31T16:41:49.366982" elapsed="0.000000"/>
</kw>
<arg>201</arg>
<status status="PASS" start="2024-05-31T16:41:49.366014" elapsed="0.000968"/>
</kw>
<doc>CARD XXYY</doc>
<tag>SO1_CT02</tag>
<status status="PASS" start="2024-05-31T16:41:47.402741" elapsed="1.965741"/>
</test>
<status status="PASS" start="2024-05-31T16:41:46.342075" elapsed="3.028849"/>
</suite>
<statistics>
<total>
<stat pass="2" fail="0" skip="0">All Tests</stat>
</total>
<tag>
<stat pass="1" fail="0" skip="0">SO1_CT01</stat>
<stat pass="1" fail="0" skip="0">SO1_CT02</stat>
</tag>
<suite>
<stat pass="2" fail="0" skip="0" id="s1" name="SO1 API">SO1 API</stat>
</suite>
</statistics>
<errors>
<msg time="2024-05-31T16:41:46.323238" level="WARN">Error in file 'C:\Users\mb_la\OneDrive\Documentos\MB_Robotizando_API\API-ROBOT\Test\SO1_API.robot' on line 5: Singular section headers like '*** Test Case ***' are deprecated. Use plural format like '*** Test Cases ***' instead.</msg>
</errors>
</robot>
